PubMed Text Analysis – Cynthia Budiyanto
…
Text Analysis

When I first examined the fresh data set generated by the python script, I was highly curious who is the most published author in this PubMed data set, with the topic of Lipid Droplet. So, my text analysis started modest and simple, let’s see who is the major “First Author”, which is most of the times regarded as the most significant intellectual, experimental, and writing contributor to a research paper. When a paper is cited, that first author is usually who will be referenced to, both through bibliography or through word of mouth. Let’s see who is the major “First Author” in this data set.

# A tibble: 5 × 2
  FA          n
  <chr>   <int>
1 Wang Y     56
2 Zhang Y    56
3 Li Y       55
4 Li X       38
5 Liu Y      34

# A tibble: 239 × 2
   FA      FA_institution                                                       
   <chr>   <chr>                                                                
 1 Li Y    "Department of Traditional Chinese Medicine, Wuhan Fourth Hospital." 
 2 Wang Y  "Department of Rehabilitation, The Fourth Clinical Medical College o…
 3 Zhang Y "Department of Animal Science, College of Agriculture, Yanbian Unive…
 4 Zhang Y "Department of Anesthesiology, Wuhan University, Renmin Hospital, Wu…
 5 Li Y    "Shanghai Key Laboratory of Orthopedic Implants, Department of Ortho…
 6 Li Y    "Key Laboratory of Carbohydrate Chemistry and Biotechnology, Ministr…
 7 Li X    "Key Laboratory of Animal Genetics, Breeding and Reproduction in the…
 8 Wang Y  "College of Animal & Veterinary Sciences, Southwest Minzu University…
 9 Liu Y   "Shaanxi Province Key Laboratory of Bioresources, QinLing-Bashan Mou…
10 Wang Y  "Department of Clinical Pharmacology, College of Pharmacy, Dalian Me…
# ℹ 229 more rows
…
Simple one-word analysis might be interesting in the beginning, but we can quickly realise that it is too hard to infer anything from it. Therefore, what we will do next is bigram or two-words analysis.

# A tibble: 254,566 × 2
   bigram                    n
   <chr>                 <int>
 1 adipose tissue         1328
 2 endoplasmic reticulum   914
 3 oxidative stress        899
 4 signaling pathway       561
 5 hepatic steatosis       556
 6 body weight             502
 7 binding protein         486
 8 insulin resistance      453
 9 reactive oxygen         446
10 oxygen species          442
# ℹ 254,556 more rows

# A tibble: 173,965 × 2
   bigram                                n
   <chr>                             <int>
 1 reactive oxygen species             441
 2 peroxisome proliferator activated   414
 3 proliferator activated receptor     408
 4 endoplasmic reticulum er            392
 5 oxygen species ros                  244
 6 low density lipoprotein             243
 7 activated protein kinase            192
 8 brown adipose tissue                166
 9 regulatory element binding          163
10 sterol regulatory element           161
# ℹ 173,955 more rows

# A tibble: 1,593 × 2
   bigram                 n
   <chr>              <int>
 1 clo pxgs              11
 2 ps nps                10
 3 β casein              10
 4 mfgm glycoproteins     9
 5 rna seq                6
 6 ga ch                  5
 7 marine fish            5
 8 mrna isoforms          5
 9 tpa cyp                5
10 tpa trdn               5
# ℹ 1,583 more rows

# A tibble: 768 × 2
   bigram                            n
   <chr>                         <int>
 1 a2 β casein                       4
 2 β carboline alkaloid              3
 3 adipose tissue browning           2
 4 base cross linking                2
 5 bilayer contact angle             2
 6 branchial epithelial liftings     2
 7 camellia oil body                 2
 8 casein genotype a1a1              2
 9 casein milk variant               2
10 cc bonds equalled                 2
# ℹ 758 more rows
…
